%YAML 1.1
%TAG !u! tag:unity3d.com,2011:
--- !u!114 &11400000
MonoBehaviour:
  m_ObjectHideFlags: 0
  m_CorrespondingSourceObject: {fileID: 0}
  m_PrefabInstance: {fileID: 0}
  m_PrefabAsset: {fileID: 0}
  m_GameObject: {fileID: 0}
  m_Enabled: 1
  m_EditorHideFlags: 0
  m_Script: {fileID: 11500000, guid: 60243c03cf68f334396960e49c7df9fd, type: 3}
  m_Name: Planting
  m_EditorClassIdentifier: 
  mixer: {fileID: 425383427100249740, guid: 268875645c0adca4bb8ab1f3ef54caef, type: 2}
  clip: {fileID: 8300000, guid: 109f1102c58816645ad584c3f9c69c95, type: 3}
  isLoop: 0
  volume: 1
  pitch: 1
