%YAML 1.1
%TAG !u! tag:unity3d.com,2011:
--- !u!114 &11400000
MonoBehaviour:
  m_ObjectHideFlags: 0
  m_CorrespondingSourceObject: {fileID: 0}
  m_PrefabInstance: {fileID: 0}
  m_PrefabAsset: {fileID: 0}
  m_GameObject: {fileID: 0}
  m_Enabled: 1
  m_EditorHideFlags: 0
  m_Script: {fileID: 11500000, guid: 27295452fb88ddb498f04058ac2598f3, type: 3}
  m_Name: Cloud
  m_EditorClassIdentifier: 
  _itemIcon: {fileID: 0}
  _inGamePic: {fileID: 0}
  _itemName: Cloud
  itemType: 1
  _itemID: SI0003
  _itemDuration: 10
  _activationDelay: 0
  _growthRatePercent: 0.5
  _actionSpeedPercent: 0
