%YAML 1.1
%TAG !u! tag:unity3d.com,2011:
--- !u!114 &11400000
MonoBehaviour:
  m_ObjectHideFlags: 0
  m_CorrespondingSourceObject: {fileID: 0}
  m_PrefabInstance: {fileID: 0}
  m_PrefabAsset: {fileID: 0}
  m_GameObject: {fileID: 0}
  m_Enabled: 1
  m_EditorHideFlags: 0
  m_Script: {fileID: 11500000, guid: 27295452fb88ddb498f04058ac2598f3, type: 3}
  m_Name: Mr.Mole
  m_EditorClassIdentifier: 
  _itemIcon: {fileID: 21300000, guid: 3c5b8927532fac646842305f361cf2d1, type: 3}
  _inGamePic: {fileID: 21300000, guid: 3c5b8927532fac646842305f361cf2d1, type: 3}
  _itemName: Mr. Mole
  itemType: 0
  _itemID: SI0002
  _itemDuration: 5
  _activationDelay: 0
  _growthRatePercent: 0
  _actionSpeedPercent: 0
