%YAML 1.1
%TAG !u! tag:unity3d.com,2011:
--- !u!74 &7400000
AnimationClip:
  m_ObjectHideFlags: 0
  m_CorrespondingSourceObject: {fileID: 0}
  m_PrefabInstance: {fileID: 0}
  m_PrefabAsset: {fileID: 0}
  m_Name: male-farmer-pickup
  serializedVersion: 6
  m_Legacy: 0
  m_Compressed: 0
  m_UseHighQualityCurve: 1
  m_RotationCurves: []
  m_CompressedRotationCurves: []
  m_EulerCurves: []
  m_PositionCurves:
  - curve:
      serializedVersion: 2
      m_Curve:
      - serializedVersion: 3
        time: 0.06666667
        value: {x: -0.062, y: -0.212, z: -0.012}
        inSlope: {x: 0, y: 0, z: 0}
        outSlope: {x: 0, y: 0, z: 0}
        tangentMode: 0
        weightedMode: 0
        inWeight: {x: 0.33333334, y: 0.33333334, z: 0.33333334}
        outWeight: {x: 0.33333334, y: 0.33333334, z: 0.33333334}
      - serializedVersion: 3
        time: 0.18333334
        value: {x: 0, y: 0.25, z: -0.216}
        inSlope: {x: 0, y: 0, z: 0}
        outSlope: {x: 0, y: 0, z: 0}
        tangentMode: 0
        weightedMode: 0
        inWeight: {x: 0.33333334, y: 0.33333334, z: 0.33333334}
        outWeight: {x: 0.33333334, y: 0.33333334, z: 0.33333334}
      m_PreInfinity: 2
      m_PostInfinity: 2
      m_RotationOrder: 4
    path: CharacterRenderer/CharacterHolding
  m_ScaleCurves: []
  m_FloatCurves: []
  m_PPtrCurves:
  - curve:
    - time: 0
      value: {fileID: 2809832697181700346, guid: 81c1edb5595787545a4b9f7b4fc22bc0,
        type: 3}
    - time: 0.016666668
      value: {fileID: 8232621404782693944, guid: 81c1edb5595787545a4b9f7b4fc22bc0,
        type: 3}
    - time: 0.033333335
      value: {fileID: 5602444196458128520, guid: 81c1edb5595787545a4b9f7b4fc22bc0,
        type: 3}
    - time: 0.05
      value: {fileID: 5043776145660277237, guid: 81c1edb5595787545a4b9f7b4fc22bc0,
        type: 3}
    - time: 0.06666667
      value: {fileID: 5647872643263263902, guid: 81c1edb5595787545a4b9f7b4fc22bc0,
        type: 3}
    - time: 0.083333336
      value: {fileID: 3291525680662516397, guid: 81c1edb5595787545a4b9f7b4fc22bc0,
        type: 3}
    - time: 0.1
      value: {fileID: 7898240334185560986, guid: 81c1edb5595787545a4b9f7b4fc22bc0,
        type: 3}
    - time: 0.11666667
      value: {fileID: 8708701550401423787, guid: 81c1edb5595787545a4b9f7b4fc22bc0,
        type: 3}
    - time: 0.13333334
      value: {fileID: -21756800300524452, guid: 81c1edb5595787545a4b9f7b4fc22bc0,
        type: 3}
    - time: 0.15
      value: {fileID: -6644560293750013853, guid: 81c1edb5595787545a4b9f7b4fc22bc0,
        type: 3}
    - time: 0.16666667
      value: {fileID: -844933531412363968, guid: 81c1edb5595787545a4b9f7b4fc22bc0,
        type: 3}
    - time: 0.18333334
      value: {fileID: -1379774524679185647, guid: 81c1edb5595787545a4b9f7b4fc22bc0,
        type: 3}
    attribute: m_Sprite
    path: CharacterRenderer
    classID: 212
    script: {fileID: 0}
  m_SampleRate: 60
  m_WrapMode: 0
  m_Bounds:
    m_Center: {x: 0, y: 0, z: 0}
    m_Extent: {x: 0, y: 0, z: 0}
  m_ClipBindingConstant:
    genericBindings:
    - serializedVersion: 2
      path: 1358983853
      attribute: 1
      script: {fileID: 0}
      typeID: 4
      customType: 0
      isPPtrCurve: 0
    - serializedVersion: 2
      path: 1000444016
      attribute: 0
      script: {fileID: 0}
      typeID: 212
      customType: 23
      isPPtrCurve: 1
    pptrCurveMapping:
    - {fileID: 2809832697181700346, guid: 81c1edb5595787545a4b9f7b4fc22bc0, type: 3}
    - {fileID: 8232621404782693944, guid: 81c1edb5595787545a4b9f7b4fc22bc0, type: 3}
    - {fileID: 5602444196458128520, guid: 81c1edb5595787545a4b9f7b4fc22bc0, type: 3}
    - {fileID: 5043776145660277237, guid: 81c1edb5595787545a4b9f7b4fc22bc0, type: 3}
    - {fileID: 5647872643263263902, guid: 81c1edb5595787545a4b9f7b4fc22bc0, type: 3}
    - {fileID: 3291525680662516397, guid: 81c1edb5595787545a4b9f7b4fc22bc0, type: 3}
    - {fileID: 7898240334185560986, guid: 81c1edb5595787545a4b9f7b4fc22bc0, type: 3}
    - {fileID: 8708701550401423787, guid: 81c1edb5595787545a4b9f7b4fc22bc0, type: 3}
    - {fileID: -21756800300524452, guid: 81c1edb5595787545a4b9f7b4fc22bc0, type: 3}
    - {fileID: -6644560293750013853, guid: 81c1edb5595787545a4b9f7b4fc22bc0, type: 3}
    - {fileID: -844933531412363968, guid: 81c1edb5595787545a4b9f7b4fc22bc0, type: 3}
    - {fileID: -1379774524679185647, guid: 81c1edb5595787545a4b9f7b4fc22bc0, type: 3}
  m_AnimationClipSettings:
    serializedVersion: 2
    m_AdditiveReferencePoseClip: {fileID: 0}
    m_AdditiveReferencePoseTime: 0
    m_StartTime: 0
    m_StopTime: 0.2
    m_OrientationOffsetY: 0
    m_Level: 0
    m_CycleOffset: 0
    m_HasAdditiveReferencePose: 0
    m_LoopTime: 1
    m_LoopBlend: 0
    m_LoopBlendOrientation: 0
    m_LoopBlendPositionY: 0
    m_LoopBlendPositionXZ: 0
    m_KeepOriginalOrientation: 0
    m_KeepOriginalPositionY: 1
    m_KeepOriginalPositionXZ: 0
    m_HeightFromFeet: 0
    m_Mirror: 0
  m_EditorCurves:
  - curve:
      serializedVersion: 2
      m_Curve:
      - serializedVersion: 3
        time: 0.06666667
        value: -0.062
        inSlope: 0
        outSlope: 0
        tangentMode: 136
        weightedMode: 0
        inWeight: 0.33333334
        outWeight: 0.33333334
      - serializedVersion: 3
        time: 0.18333334
        value: 0
        inSlope: 0
        outSlope: 0
        tangentMode: 136
        weightedMode: 0
        inWeight: 0.33333334
        outWeight: 0.33333334
      m_PreInfinity: 2
      m_PostInfinity: 2
      m_RotationOrder: 4
    attribute: m_LocalPosition.x
    path: CharacterRenderer/CharacterHolding
    classID: 4
    script: {fileID: 0}
  - curve:
      serializedVersion: 2
      m_Curve:
      - serializedVersion: 3
        time: 0.06666667
        value: -0.212
        inSlope: 0
        outSlope: 0
        tangentMode: 136
        weightedMode: 0
        inWeight: 0.33333334
        outWeight: 0.33333334
      - serializedVersion: 3
        time: 0.18333334
        value: 0.25
        inSlope: 0
        outSlope: 0
        tangentMode: 136
        weightedMode: 0
        inWeight: 0.33333334
        outWeight: 0.33333334
      m_PreInfinity: 2
      m_PostInfinity: 2
      m_RotationOrder: 4
    attribute: m_LocalPosition.y
    path: CharacterRenderer/CharacterHolding
    classID: 4
    script: {fileID: 0}
  - curve:
      serializedVersion: 2
      m_Curve:
      - serializedVersion: 3
        time: 0.06666667
        value: -0.012
        inSlope: 0
        outSlope: 0
        tangentMode: 136
        weightedMode: 0
        inWeight: 0.33333334
        outWeight: 0.33333334
      - serializedVersion: 3
        time: 0.18333334
        value: -0.216
        inSlope: 0
        outSlope: 0
        tangentMode: 136
        weightedMode: 0
        inWeight: 0.33333334
        outWeight: 0.33333334
      m_PreInfinity: 2
      m_PostInfinity: 2
      m_RotationOrder: 4
    attribute: m_LocalPosition.z
    path: CharacterRenderer/CharacterHolding
    classID: 4
    script: {fileID: 0}
  m_EulerEditorCurves: []
  m_HasGenericRootTransform: 0
  m_HasMotionFloatCurves: 0
  m_Events:
  - time: 0.06666667
    functionName: PickupAnimationTrigger
    data: 
    objectReferenceParameter: {fileID: 0}
    floatParameter: 0
    intParameter: 0
    messageOptions: 0
  - time: 0.18333334
    functionName: DoneAnimationState
    data: 
    objectReferenceParameter: {fileID: 0}
    floatParameter: 0
    intParameter: 0
    messageOptions: 0
