%YAML 1.1
%TAG !u! tag:unity3d.com,2011:
--- !u!74 &7400000
AnimationClip:
  m_ObjectHideFlags: 0
  m_CorrespondingSourceObject: {fileID: 0}
  m_PrefabInstance: {fileID: 0}
  m_PrefabAsset: {fileID: 0}
  m_Name: male-farmer-walk
  serializedVersion: 6
  m_Legacy: 0
  m_Compressed: 0
  m_UseHighQualityCurve: 1
  m_RotationCurves: []
  m_CompressedRotationCurves: []
  m_EulerCurves: []
  m_PositionCurves: []
  m_ScaleCurves: []
  m_FloatCurves: []
  m_PPtrCurves:
  - curve:
    - time: 0
      value: {fileID: 2186770114016236297, guid: 9ec284e38bafa9c44be4ef82154514dd,
        type: 3}
    - time: 0.016666668
      value: {fileID: -3548487370571921007, guid: 9ec284e38bafa9c44be4ef82154514dd,
        type: 3}
    - time: 0.033333335
      value: {fileID: -2684501191368769964, guid: 9ec284e38bafa9c44be4ef82154514dd,
        type: 3}
    - time: 0.05
      value: {fileID: 6518325854681790304, guid: 9ec284e38bafa9c44be4ef82154514dd,
        type: 3}
    - time: 0.06666667
      value: {fileID: 7110686012139300270, guid: 9ec284e38bafa9c44be4ef82154514dd,
        type: 3}
    - time: 0.083333336
      value: {fileID: 3039681558608512760, guid: 9ec284e38bafa9c44be4ef82154514dd,
        type: 3}
    - time: 0.1
      value: {fileID: -1542206667806758439, guid: 9ec284e38bafa9c44be4ef82154514dd,
        type: 3}
    - time: 0.11666667
      value: {fileID: -4319056473562336950, guid: 9ec284e38bafa9c44be4ef82154514dd,
        type: 3}
    - time: 0.13333334
      value: {fileID: -9181000373449718896, guid: 9ec284e38bafa9c44be4ef82154514dd,
        type: 3}
    - time: 0.15
      value: {fileID: -7356397186295842166, guid: 9ec284e38bafa9c44be4ef82154514dd,
        type: 3}
    - time: 0.16666667
      value: {fileID: -2307353327243696821, guid: 9ec284e38bafa9c44be4ef82154514dd,
        type: 3}
    - time: 0.18333334
      value: {fileID: -3632300071184858220, guid: 9ec284e38bafa9c44be4ef82154514dd,
        type: 3}
    - time: 0.2
      value: {fileID: 936656170406490609, guid: 9ec284e38bafa9c44be4ef82154514dd,
        type: 3}
    attribute: m_Sprite
    path: CharacterRenderer
    classID: 212
    script: {fileID: 0}
  m_SampleRate: 60
  m_WrapMode: 0
  m_Bounds:
    m_Center: {x: 0, y: 0, z: 0}
    m_Extent: {x: 0, y: 0, z: 0}
  m_ClipBindingConstant:
    genericBindings:
    - serializedVersion: 2
      path: 1000444016
      attribute: 0
      script: {fileID: 0}
      typeID: 212
      customType: 23
      isPPtrCurve: 1
    pptrCurveMapping:
    - {fileID: 2186770114016236297, guid: 9ec284e38bafa9c44be4ef82154514dd, type: 3}
    - {fileID: -3548487370571921007, guid: 9ec284e38bafa9c44be4ef82154514dd, type: 3}
    - {fileID: -2684501191368769964, guid: 9ec284e38bafa9c44be4ef82154514dd, type: 3}
    - {fileID: 6518325854681790304, guid: 9ec284e38bafa9c44be4ef82154514dd, type: 3}
    - {fileID: 7110686012139300270, guid: 9ec284e38bafa9c44be4ef82154514dd, type: 3}
    - {fileID: 3039681558608512760, guid: 9ec284e38bafa9c44be4ef82154514dd, type: 3}
    - {fileID: -1542206667806758439, guid: 9ec284e38bafa9c44be4ef82154514dd, type: 3}
    - {fileID: -4319056473562336950, guid: 9ec284e38bafa9c44be4ef82154514dd, type: 3}
    - {fileID: -9181000373449718896, guid: 9ec284e38bafa9c44be4ef82154514dd, type: 3}
    - {fileID: -7356397186295842166, guid: 9ec284e38bafa9c44be4ef82154514dd, type: 3}
    - {fileID: -2307353327243696821, guid: 9ec284e38bafa9c44be4ef82154514dd, type: 3}
    - {fileID: -3632300071184858220, guid: 9ec284e38bafa9c44be4ef82154514dd, type: 3}
    - {fileID: 936656170406490609, guid: 9ec284e38bafa9c44be4ef82154514dd, type: 3}
  m_AnimationClipSettings:
    serializedVersion: 2
    m_AdditiveReferencePoseClip: {fileID: 0}
    m_AdditiveReferencePoseTime: 0
    m_StartTime: 0
    m_StopTime: 0.21666667
    m_OrientationOffsetY: 0
    m_Level: 0
    m_CycleOffset: 0
    m_HasAdditiveReferencePose: 0
    m_LoopTime: 1
    m_LoopBlend: 0
    m_LoopBlendOrientation: 0
    m_LoopBlendPositionY: 0
    m_LoopBlendPositionXZ: 0
    m_KeepOriginalOrientation: 0
    m_KeepOriginalPositionY: 1
    m_KeepOriginalPositionXZ: 0
    m_HeightFromFeet: 0
    m_Mirror: 0
  m_EditorCurves: []
  m_EulerEditorCurves: []
  m_HasGenericRootTransform: 0
  m_HasMotionFloatCurves: 0
  m_Events: []
