%YAML 1.1
%TAG !u! tag:unity3d.com,2011:
--- !u!114 &11400000
MonoBehaviour:
  m_ObjectHideFlags: 0
  m_CorrespondingSourceObject: {fileID: 0}
  m_PrefabInstance: {fileID: 0}
  m_PrefabAsset: {fileID: 0}
  m_GameObject: {fileID: 0}
  m_Enabled: 1
  m_EditorHideFlags: 0
  m_Script: {fileID: 11500000, guid: b5410696398460848b390511101df0f8, type: 3}
  m_Name: CropDB
  m_EditorClassIdentifier: 
  _allCropData:
  - {fileID: 11400000, guid: 0bd8416b1797cc5499c3e396b5feb59b, type: 2}
  - {fileID: 11400000, guid: 3f43aa81e2ff1994aa6c06f9762e3fed, type: 2}
  - {fileID: 11400000, guid: 1f40a38c6f3fba642a2c5d8c1193cdd9, type: 2}
  - {fileID: 11400000, guid: 45ecb5db20309c445a6293274e3f8917, type: 2}
  - {fileID: 11400000, guid: 3cf8a2fb5df76f345b3f5aca36a7c9d1, type: 2}
  - {fileID: 11400000, guid: b869a6488781c134a848a412ee7faf64, type: 2}
  - {fileID: 11400000, guid: c214358c967e53c478b784182eb6fb10, type: 2}
  - {fileID: 11400000, guid: 3ae7ea13b4cbce14c8152d9a0029c4f0, type: 2}
  - {fileID: 11400000, guid: 71590c5803c9269459f664f3d01c0e6b, type: 2}
  - {fileID: 11400000, guid: 80e98e7b47a9c764e8d0076cce744e9e, type: 2}
  _cropPrefabs: {fileID: 2903723145075808615, guid: b109f88d9d8457e4aa2f7a6e40286acc,
    type: 3}
  _seedBagPrefabs: {fileID: 2903723145075808615, guid: 5f55021666ccf244a9317878c7ed82b0,
    type: 3}
