%YAML 1.1
%TAG !u! tag:unity3d.com,2011:
--- !u!74 &7400000
AnimationClip:
  m_ObjectHideFlags: 0
  m_CorrespondingSourceObject: {fileID: 0}
  m_PrefabInstance: {fileID: 0}
  m_PrefabAsset: {fileID: 0}
  m_Name: scarecrow-farmer-idle
  serializedVersion: 6
  m_Legacy: 0
  m_Compressed: 0
  m_UseHighQualityCurve: 1
  m_RotationCurves: []
  m_CompressedRotationCurves: []
  m_EulerCurves: []
  m_PositionCurves: []
  m_ScaleCurves: []
  m_FloatCurves: []
  m_PPtrCurves:
  - curve:
    - time: 0
      value: {fileID: 8145800960051078328, guid: f12f06d802c863b4685d40806bcac67c,
        type: 3}
    - time: 0.016666668
      value: {fileID: 1858614066283002862, guid: f12f06d802c863b4685d40806bcac67c,
        type: 3}
    - time: 0.033333335
      value: {fileID: 2539093706854951218, guid: f12f06d802c863b4685d40806bcac67c,
        type: 3}
    - time: 0.05
      value: {fileID: 8167363712012917986, guid: f12f06d802c863b4685d40806bcac67c,
        type: 3}
    - time: 0.06666667
      value: {fileID: -3573665673521679535, guid: f12f06d802c863b4685d40806bcac67c,
        type: 3}
    - time: 0.083333336
      value: {fileID: -8566607954304756858, guid: f12f06d802c863b4685d40806bcac67c,
        type: 3}
    - time: 0.1
      value: {fileID: 4718480871141839832, guid: f12f06d802c863b4685d40806bcac67c,
        type: 3}
    - time: 0.11666667
      value: {fileID: -8431935825378391646, guid: f12f06d802c863b4685d40806bcac67c,
        type: 3}
    - time: 0.13333334
      value: {fileID: -1102192013542114998, guid: f12f06d802c863b4685d40806bcac67c,
        type: 3}
    - time: 0.15
      value: {fileID: 9134258421092359361, guid: f12f06d802c863b4685d40806bcac67c,
        type: 3}
    - time: 0.16666667
      value: {fileID: 5687951722696632840, guid: f12f06d802c863b4685d40806bcac67c,
        type: 3}
    - time: 0.18333334
      value: {fileID: 1870992800504955716, guid: f12f06d802c863b4685d40806bcac67c,
        type: 3}
    - time: 0.2
      value: {fileID: -6713953895966451163, guid: f12f06d802c863b4685d40806bcac67c,
        type: 3}
    attribute: m_Sprite
    path: CharacterRenderer
    classID: 212
    script: {fileID: 0}
  m_SampleRate: 60
  m_WrapMode: 0
  m_Bounds:
    m_Center: {x: 0, y: 0, z: 0}
    m_Extent: {x: 0, y: 0, z: 0}
  m_ClipBindingConstant:
    genericBindings:
    - serializedVersion: 2
      path: 1000444016
      attribute: 0
      script: {fileID: 0}
      typeID: 212
      customType: 23
      isPPtrCurve: 1
    pptrCurveMapping:
    - {fileID: 8145800960051078328, guid: f12f06d802c863b4685d40806bcac67c, type: 3}
    - {fileID: 1858614066283002862, guid: f12f06d802c863b4685d40806bcac67c, type: 3}
    - {fileID: 2539093706854951218, guid: f12f06d802c863b4685d40806bcac67c, type: 3}
    - {fileID: 8167363712012917986, guid: f12f06d802c863b4685d40806bcac67c, type: 3}
    - {fileID: -3573665673521679535, guid: f12f06d802c863b4685d40806bcac67c, type: 3}
    - {fileID: -8566607954304756858, guid: f12f06d802c863b4685d40806bcac67c, type: 3}
    - {fileID: 4718480871141839832, guid: f12f06d802c863b4685d40806bcac67c, type: 3}
    - {fileID: -8431935825378391646, guid: f12f06d802c863b4685d40806bcac67c, type: 3}
    - {fileID: -1102192013542114998, guid: f12f06d802c863b4685d40806bcac67c, type: 3}
    - {fileID: 9134258421092359361, guid: f12f06d802c863b4685d40806bcac67c, type: 3}
    - {fileID: 5687951722696632840, guid: f12f06d802c863b4685d40806bcac67c, type: 3}
    - {fileID: 1870992800504955716, guid: f12f06d802c863b4685d40806bcac67c, type: 3}
    - {fileID: -6713953895966451163, guid: f12f06d802c863b4685d40806bcac67c, type: 3}
  m_AnimationClipSettings:
    serializedVersion: 2
    m_AdditiveReferencePoseClip: {fileID: 0}
    m_AdditiveReferencePoseTime: 0
    m_StartTime: 0
    m_StopTime: 0.21666667
    m_OrientationOffsetY: 0
    m_Level: 0
    m_CycleOffset: 0
    m_HasAdditiveReferencePose: 0
    m_LoopTime: 1
    m_LoopBlend: 0
    m_LoopBlendOrientation: 0
    m_LoopBlendPositionY: 0
    m_LoopBlendPositionXZ: 0
    m_KeepOriginalOrientation: 0
    m_KeepOriginalPositionY: 1
    m_KeepOriginalPositionXZ: 0
    m_HeightFromFeet: 0
    m_Mirror: 0
  m_EditorCurves: []
  m_EulerEditorCurves: []
  m_HasGenericRootTransform: 0
  m_HasMotionFloatCurves: 0
  m_Events: []
