%YAML 1.1
%TAG !u! tag:unity3d.com,2011:
--- !u!114 &11400000
MonoBehaviour:
  m_ObjectHideFlags: 0
  m_CorrespondingSourceObject: {fileID: 0}
  m_PrefabInstance: {fileID: 0}
  m_PrefabAsset: {fileID: 0}
  m_GameObject: {fileID: 0}
  m_Enabled: 1
  m_EditorHideFlags: 0
  m_Script: {fileID: 11500000, guid: 85399ef0040f72a408510025290004f2, type: 3}
  m_Name: Cotton
  m_EditorClassIdentifier: 
  _cropIcon: {fileID: -2085875158325160323, guid: d01a0acda124b894a9119128e91a095d,
    type: 3}
  _seedBagImage: {fileID: 21300000, guid: 7560a2c5e5be58b4d8d3adb3a7699a3a, type: 3}
  _cropSeedImage1: {fileID: 3645582055696654505, guid: d01a0acda124b894a9119128e91a095d,
    type: 3}
  _cropSeedImage2: {fileID: -2191792201721904635, guid: d01a0acda124b894a9119128e91a095d,
    type: 3}
  _cropSproutOneImage: {fileID: 4232259262875116004, guid: d01a0acda124b894a9119128e91a095d,
    type: 3}
  _cropSproutTwoImage: {fileID: -969623560088381141, guid: d01a0acda124b894a9119128e91a095d,
    type: 3}
  _cropSproutThreeImage: {fileID: 1042181471094212894, guid: d01a0acda124b894a9119128e91a095d,
    type: 3}
  _cropHavestableImage: {fileID: -8496717019109153131, guid: d01a0acda124b894a9119128e91a095d,
    type: 3}
  _cropID: BC0000
  _cropName: Cotton
  _baseHP: 0
  _growDuration: 12
  _baseBuyPrice: 80
  _currentBuyPrice: 80
  _baseSellPrice: 45
  _currentSellPrice: 45
