%YAML 1.1
%TAG !u! tag:unity3d.com,2011:
--- !u!114 &11400000
MonoBehaviour:
  m_ObjectHideFlags: 0
  m_CorrespondingSourceObject: {fileID: 0}
  m_PrefabInstance: {fileID: 0}
  m_PrefabAsset: {fileID: 0}
  m_GameObject: {fileID: 0}
  m_Enabled: 1
  m_EditorHideFlags: 0
  m_Script: {fileID: 11500000, guid: 85399ef0040f72a408510025290004f2, type: 3}
  m_Name: Grape
  m_EditorClassIdentifier: 
  _cropIcon: {fileID: 0}
  _seedBagImage: {fileID: 0}
  _cropSeedImage1: {fileID: 0}
  _cropSeedImage2: {fileID: 0}
  _cropSproutOneImage: {fileID: 0}
  _cropSproutTwoImage: {fileID: 0}
  _cropSproutThreeImage: {fileID: 0}
  _cropHavestableImage: {fileID: 0}
  _cropID: BC0007
  _cropName: Grape
  _baseHP: 0
  _growDuration: 14
  _baseBuyPrice: 160
  _currentBuyPrice: 160
  _baseSellPrice: 50
  _currentSellPrice: 50
